Who is Bart's best friend?, Milhouse, Jimbo, Nelson, Martin, Milhouse
How are Chief Wiggum and Ralph Wiggum related?, No relation, Brothers, Cousins, Father and son, Father and son
What colour hair does Milhouse have?, Orange, Blue, Purple, White, Blue
'The Windy Apple' is a nickname for which city in 'The Simpsons'?, Springfield, Capital City, Shelbyille, Osaka, Capital City
For which channel is Kent Brockman the news anchor?, Channel 1, Channel 3, Channel 6, Channel 11, Channel 6
What is Patty and Selma's favourite TV show?, Itchy and Scratchy, Matlock, MacGyver, Neighbours, MacGyver
What is the first name of Homer Simpson's dad?, Abe, George, Eugene, Martin, Abe
What is Homer's famous saying?, Yikes!, Oops!, D'oh!, Damn!, D'oh!
What is the theme park owned by Krusty the Clown called?, Funland, Neverland, Krustyland, Wildland, Krustyland
Who lost their teeth while making burgers at a Krusty Burger in season 5?, Agnes Skinner, Mr. Burns, Abe Simpson, Edna Krabappel, Abe Simpson
What poisonous food did Homer eat at the sushi restaurant?, Sudoku, Fugu, Unagi, Mugu, Fugu
What is the occupation of Krusty the Clown's father?, Rabbi, Politician, Baker, Lawyer, Rabbi
What syndrome/disorder does Bart suffer from?, Munchausen Syndrome, Stockholm Syndrome, Attention Deficit Disorder, Tourette's Syndrome, Attention Deficit Disorder
What is Bart's secret twin called?, Bart, Hugo, Jim, Homer Junior, Hugo
What age range is Homer known to be?, 31-35, 36-40, 41-45, 46-50, 36-40
Who has tried to kill Bart many times?, Sideshow Mel, Maggie, Jimbo, Sideshow Bob, Sideshow Bob
In Shelbyville what is the name of the bar they visit?, Moe's Bar, Joe's Bar, Moe's Tavern, Joe's Tavern
What reed does Lisa need for her recital?, Three quarters reed, Three reed, Four and a half reed, Nine reed, Four and a half reed
What is Maggie's first word?, Daddy, Mommy, Homer, MacGyver, Daddy
Who wears a purple beanie?, Nelson, Raplh Wiggum, Jimbo, Willie, Jimbo